{
    "AppSettings": {
        "SiteEmailAddress": "me@aol.com"
    },
    "MailServerApi": {
        "uri": "https://api.sendgrid.com/api/mail.send.json",
        "api_user": "azure_d7f9368bd58229164d6fca12c5c8e6b2@azure.com",
        "api_key": "Sigma@password123",
        "to": "zheng344@hotmail.com",
        "toname": "Sigma",
        "subject": "TestMail"
    },
    "Data": {
        //       "DefaultConnection": "Server=LENOVO-PC\\SQLEXPRESS;Database=TheSigmaDb;Trusted_Connection=True;MultipleActiveResultSets=true"
        "DefaultConnection": "Server=tcp:sqlsigmatesting.database.windows.net,1433;Database=dbSigmaTesting;Persist Security Info=False;User ID=sqlsigma;Password=Sigma@password;Pooling=False;MultipleActiveResultSets=False;Encrypt=True;TrustServerCertificate=False;Connection Timeout=30;"
    }
}